module jenkins-cli

go 1.17

require (
	github.com/c-bata/go-prompt v0.2.6
	github.com/pkg/errors v0.9.1
	golang.org/x/crypto v0.0.0-20210921155107-089bfa567519
)

require (
	github.com/mattn/go-colorable v0.1.7 // indirect
	github.com/mattn/go-isatty v0.0.12 // indirect
	github.com/mattn/go-runewidth v0.0.9 // indirect
	github.com/mattn/go-tty v0.0.3 // indirect
	github.com/pkg/term v1.2.0-beta.2 // indirect
	golang.org/x/sys v0.0.0-20210615035016-665e8c7367d1 // indirect
	golang.org/x/term v0.0.0-20201126162022-7de9c90e9dd1 // indirect
)
